14a9f6c24d7be:97220e7695@188.126.3.90:12323
14a9f6c24d7be:97220e7695@188.126.2.208:12323
14a9f6c24d7be:97220e7695@188.126.2.150:12323
14a9f6c24d7be:97220e7695@188.126.3.12:12323
14a9f6c24d7be:97220e7695@188.126.3.38:12323
14a9f6c24d7be:97220e7695@188.126.2.161:12323
14a9f6c24d7be:97220e7695@188.126.3.131:12323
14a9f6c24d7be:97220e7695@188.126.3.130:12323
14a9f6c24d7be:97220e7695@188.126.3.213:12323
14a9f6c24d7be:97220e7695@188.126.2.76:12323
14a9f6c24d7be:97220e7695@176.116.131.172:12323
14a9f6c24d7be:97220e7695@176.116.130.95:12323
14a9f6c24d7be:97220e7695@176.116.130.216:12323
14a9f6c24d7be:97220e7695@176.116.131.209:12323
14a9f6c24d7be:97220e7695@176.116.131.205:12323
14a9f6c24d7be:97220e7695@176.116.130.138:12323
14a9f6c24d7be:97220e7695@176.116.130.103:12323
14a9f6c24d7be:97220e7695@176.116.131.139:12323
14a9f6c24d7be:97220e7695@176.116.131.29:12323
14a9f6c24d7be:97220e7695@176.116.130.230:12323
14a9f6c24d7be:97220e7695@185.134.192.175:12323
14a9f6c24d7be:97220e7695@185.134.194.141:12323
14a9f6c24d7be:97220e7695@185.134.192.17:12323
14a9f6c24d7be:97220e7695@185.134.192.77:12323
14a9f6c24d7be:97220e7695@185.134.194.37:12323
14a9f6c24d7be:97220e7695@185.134.192.55:12323
14a9f6c24d7be:97220e7695@185.134.195.88:12323
14a9f6c24d7be:97220e7695@185.134.192.54:12323
14a9f6c24d7be:97220e7695@185.134.195.242:12323
14a9f6c24d7be:97220e7695@185.134.195.111:12323
14a9f6c24d7be:97220e7695@176.116.135.100:12323
14a9f6c24d7be:97220e7695@176.116.135.97:12323
14a9f6c24d7be:97220e7695@176.116.135.26:12323
14a9f6c24d7be:97220e7695@176.116.134.148:12323
14a9f6c24d7be:97220e7695@176.116.135.170:12323
14a9f6c24d7be:97220e7695@176.116.134.227:12323
14a9f6c24d7be:97220e7695@176.116.134.88:12323
14a9f6c24d7be:97220e7695@176.116.134.209:12323
14a9f6c24d7be:97220e7695@176.116.135.24:12323
14a9f6c24d7be:97220e7695@176.116.135.140:12323
14a9f6c24d7be:97220e7695@41.180.242.80:12323
14a9f6c24d7be:97220e7695@41.180.241.141:12323
14a9f6c24d7be:97220e7695@41.180.243.101:12323
14a9f6c24d7be:97220e7695@41.180.243.95:12323
14a9f6c24d7be:97220e7695@41.180.243.68:12323
14a9f6c24d7be:97220e7695@41.180.242.14:12323
14a9f6c24d7be:97220e7695@41.180.243.38:12323
14a9f6c24d7be:97220e7695@41.180.243.210:12323
14a9f6c24d7be:97220e7695@41.180.240.140:12323
14a9f6c24d7be:97220e7695@41.180.243.194:12323
14a9f6c24d7be:97220e7695@188.126.30.175:12323
14a9f6c24d7be:97220e7695@188.126.31.159:12323
14a9f6c24d7be:97220e7695@188.126.31.23:12323
14a9f6c24d7be:97220e7695@188.126.30.203:12323
14a9f6c24d7be:97220e7695@188.126.31.132:12323
14a9f6c24d7be:97220e7695@188.126.30.109:12323
14a9f6c24d7be:97220e7695@188.126.31.101:12323
14a9f6c24d7be:97220e7695@188.126.31.15:12323
14a9f6c24d7be:97220e7695@188.126.30.165:12323
14a9f6c24d7be:97220e7695@188.126.31.44:12323
14a9f6c24d7be:97220e7695@31.131.165.23:12323
14a9f6c24d7be:97220e7695@31.131.164.79:12323
14a9f6c24d7be:97220e7695@31.131.165.95:12323
14a9f6c24d7be:97220e7695@31.131.165.138:12323
14a9f6c24d7be:97220e7695@31.131.165.144:12323
14a9f6c24d7be:97220e7695@31.131.164.208:12323
14a9f6c24d7be:97220e7695@31.131.164.188:12323
14a9f6c24d7be:97220e7695@31.131.164.44:12323
14a9f6c24d7be:97220e7695@31.131.165.129:12323
14a9f6c24d7be:97220e7695@31.131.164.153:12323
14a9f6c24d7be:97220e7695@46.20.210.217:12323
14a9f6c24d7be:97220e7695@46.20.210.87:12323
14a9f6c24d7be:97220e7695@46.20.210.54:12323
14a9f6c24d7be:97220e7695@46.20.211.222:12323
14a9f6c24d7be:97220e7695@46.20.210.130:12323
14a9f6c24d7be:97220e7695@46.20.211.160:12323
14a9f6c24d7be:97220e7695@46.20.210.109:12323
14a9f6c24d7be:97220e7695@46.20.211.70:12323
14a9f6c24d7be:97220e7695@46.20.210.204:12323
14a9f6c24d7be:97220e7695@46.20.210.163:12323
14a9f6c24d7be:97220e7695@41.180.246.173:12323
14a9f6c24d7be:97220e7695@41.180.247.81:12323
14a9f6c24d7be:97220e7695@41.180.247.144:12323
14a9f6c24d7be:97220e7695@41.180.245.75:12323
14a9f6c24d7be:97220e7695@41.180.245.181:12323
14a9f6c24d7be:97220e7695@41.180.247.11:12323
14a9f6c24d7be:97220e7695@41.180.245.184:12323
14a9f6c24d7be:97220e7695@41.180.246.208:12323
14a9f6c24d7be:97220e7695@41.180.244.17:12323
14a9f6c24d7be:97220e7695@41.180.244.79:12323
14a9f6c24d7be:97220e7695@194.152.141.201:12323
14a9f6c24d7be:97220e7695@194.152.141.63:12323
14a9f6c24d7be:97220e7695@194.152.141.22:12323
14a9f6c24d7be:97220e7695@194.152.141.132:12323
14a9f6c24d7be:97220e7695@194.152.141.152:12323
14a9f6c24d7be:97220e7695@194.152.141.228:12323
14a9f6c24d7be:97220e7695@194.152.141.254:12323
14a9f6c24d7be:97220e7695@194.152.141.86:12323
14a9f6c24d7be:97220e7695@194.152.141.218:12323
14a9f6c24d7be:97220e7695@194.152.141.200:12323
14a6c6b1494c0:de78c8e04a@31.131.165.34:12323
14a6c6b1494c0:de78c8e04a@31.131.164.142:12323
14a6c6b1494c0:de78c8e04a@31.131.164.144:12323
14a6c6b1494c0:de78c8e04a@31.131.164.157:12323
14a6c6b1494c0:de78c8e04a@31.131.165.252:12323
14a6c6b1494c0:de78c8e04a@31.131.164.126:12323
14a6c6b1494c0:de78c8e04a@31.131.164.1:12323
14a6c6b1494c0:de78c8e04a@31.131.164.118:12323
14a6c6b1494c0:de78c8e04a@31.131.165.180:12323
14a6c6b1494c0:de78c8e04a@46.20.211.90:12323
14a6c6b1494c0:de78c8e04a@46.20.210.5:12323
14a6c6b1494c0:de78c8e04a@46.20.210.232:12323
14a6c6b1494c0:de78c8e04a@46.20.210.82:12323
14a6c6b1494c0:de78c8e04a@46.20.211.104:12323
14a6c6b1494c0:de78c8e04a@46.20.211.163:12323
14a6c6b1494c0:de78c8e04a@46.20.211.186:12323
14a6c6b1494c0:de78c8e04a@46.20.211.139:12323
14a6c6b1494c0:de78c8e04a@46.20.211.214:12323
14a6c6b1494c0:de78c8e04a@188.126.2.106:12323
14a6c6b1494c0:de78c8e04a@176.116.135.231:12323
14a6c6b1494c0:de78c8e04a@176.116.135.32:12323
14a6c6b1494c0:de78c8e04a@176.116.135.205:12323
14a6c6b1494c0:de78c8e04a@176.116.135.244:12323
14a6c6b1494c0:de78c8e04a@176.116.134.122:12323
14a6c6b1494c0:de78c8e04a@176.116.135.124:12323
14a6c6b1494c0:de78c8e04a@176.116.134.144:12323
14a6c6b1494c0:de78c8e04a@176.116.134.107:12323
14a6c6b1494c0:de78c8e04a@176.116.135.16:12323
14a6c6b1494c0:de78c8e04a@188.215.82.246:12323
14a6c6b1494c0:de78c8e04a@176.116.131.151:12323
14a6c6b1494c0:de78c8e04a@176.116.131.84:12323
14a6c6b1494c0:de78c8e04a@176.116.130.49:12323
14a6c6b1494c0:de78c8e04a@176.116.130.27:12323
14a6c6b1494c0:de78c8e04a@176.116.130.53:12323
14a6c6b1494c0:de78c8e04a@176.116.131.240:12323
14a6c6b1494c0:de78c8e04a@176.116.130.58:12323
14a6c6b1494c0:de78c8e04a@176.116.131.118:12323
14a6c6b1494c0:de78c8e04a@176.116.130.78:12323
14a6c6b1494c0:de78c8e04a@92.61.110.227:12323
14a6c6b1494c0:de78c8e04a@92.61.110.235:12323
14a6c6b1494c0:de78c8e04a@92.61.110.84:12323
14a6c6b1494c0:de78c8e04a@92.61.110.37:12323
14a6c6b1494c0:de78c8e04a@92.61.110.64:12323
14a6c6b1494c0:de78c8e04a@92.61.110.175:12323
14a6c6b1494c0:de78c8e04a@92.61.110.142:12323
14a6c6b1494c0:de78c8e04a@92.61.110.51:12323
14a6c6b1494c0:de78c8e04a@41.180.242.129:12323
14a6c6b1494c0:de78c8e04a@41.180.242.237:12323
14a6c6b1494c0:de78c8e04a@41.180.242.93:12323
14a6c6b1494c0:de78c8e04a@41.180.240.81:12323
14a6c6b1494c0:de78c8e04a@41.180.242.63:12323
14a6c6b1494c0:de78c8e04a@41.180.241.131:12323
14a6c6b1494c0:de78c8e04a@41.180.243.159:12323
14a6c6b1494c0:de78c8e04a@41.180.241.154:12323
14a6c6b1494c0:de78c8e04a@41.180.247.87:12323
14a6c6b1494c0:de78c8e04a@41.180.246.73:12323
14a6c6b1494c0:de78c8e04a@41.180.247.137:12323
14a6c6b1494c0:de78c8e04a@41.180.246.47:12323
14a6c6b1494c0:de78c8e04a@41.180.244.134:12323
14a6c6b1494c0:de78c8e04a@41.180.245.23:12323
14a6c6b1494c0:de78c8e04a@41.180.246.90:12323
14a6c6b1494c0:de78c8e04a@41.180.246.200:12323
14a6c6b1494c0:de78c8e04a@188.126.31.10:12323
14a6c6b1494c0:de78c8e04a@188.126.30.102:12323
14a6c6b1494c0:de78c8e04a@188.126.30.132:12323
14a6c6b1494c0:de78c8e04a@188.126.31.251:12323
14a6c6b1494c0:de78c8e04a@188.126.31.162:12323
14a6c6b1494c0:de78c8e04a@188.126.30.37:12323
14a6c6b1494c0:de78c8e04a@188.126.30.229:12323
14a6c6b1494c0:de78c8e04a@188.126.31.109:12323
14a6c6b1494c0:de78c8e04a@31.131.167.111:12323
14a6c6b1494c0:de78c8e04a@31.131.167.163:12323
14a6c6b1494c0:de78c8e04a@31.131.167.198:12323
14a6c6b1494c0:de78c8e04a@31.131.167.202:12323
14a6c6b1494c0:de78c8e04a@31.131.167.90:12323
14a6c6b1494c0:de78c8e04a@31.131.167.42:12323
14a6c6b1494c0:de78c8e04a@185.134.195.250:12323
14a6c6b1494c0:de78c8e04a@185.134.192.125:12323
14a6c6b1494c0:de78c8e04a@185.134.194.255:12323
14a6c6b1494c0:de78c8e04a@185.134.193.103:12323
14a6c6b1494c0:de78c8e04a@185.134.194.47:12323
14a6c6b1494c0:de78c8e04a@185.134.193.49:12323
14a6c6b1494c0:de78c8e04a@5.178.6.225:12323
14a6c6b1494c0:de78c8e04a@194.152.141.9:12323
14a6c6b1494c0:de78c8e04a@194.152.141.43:12323
14a6c6b1494c0:de78c8e04a@194.152.141.52:12323
14a6c6b1494c0:de78c8e04a@194.152.141.49:12323
14a6c6b1494c0:de78c8e04a@194.152.141.130:12323
14a6c6b1494c0:de78c8e04a@194.152.141.202:12323
14a6c6b1494c0:de78c8e04a@194.152.141.84:12323
14a6c6b1494c0:de78c8e04a@194.152.141.163:12323
14a6c6b1494c0:de78c8e04a@217.67.73.120:12323
14a6c6b1494c0:de78c8e04a@217.67.73.114:12323
14a6c6b1494c0:de78c8e04a@217.67.73.207:12323
14a6c6b1494c0:de78c8e04a@217.67.73.72:12323
14a6c6b1494c0:de78c8e04a@217.67.72.144:12323
14a6c6b1494c0:de78c8e04a@217.67.73.26:12323
14a6c6b1494c0:de78c8e04a@217.67.72.252:12323
14a6c6b1494c0:de78c8e04a@217.67.72.82:12323
14a6c6b1494c0:de78c8e04a@141.226.247.13:12323